[
    {
        "name": "admin_user",
        "email": "amhnsuje@mailinator.com",
        "password": "Pass@123",
        "is_admin": true,
        "avatar": "https://res.cloudinary.com/db08ynvzi/image/upload/v1692508400/htus7snqhnlzwnkeqieq.jpg",
        "address": "Philippines Manila"
    },
    {
        "name": "user",
        "email": "kmjsn8737f@mailinator.com",
        "password": "Pass@123",
        "is_admin": false,
        "avatar": "https://res.cloudinary.com/db08ynvzi/image/upload/v1692508400/htus7snqhnlzwnkeqieq.jpg",
        "address": "Philippines Manila"
    }
]